vhdl xbip_utils_v3_0_10  \
"../../../../FFT.srcs/sources_1/bd/design_1/ip/design_1_adc_control_0_0/src/mult_gen_0_1/hdl/xbip_utils_v3_0_vh_rfs.vhd" \

vhdl xbip_pipe_v3_0_6  \
"../../../../FFT.srcs/sources_1/bd/design_1/ip/design_1_adc_control_0_0/src/mult_gen_0_1/hdl/xbip_pipe_v3_0_vh_rfs.vhd" \

vhdl xbip_bram18k_v3_0_6  \
"../../../../FFT.srcs/sources_1/bd/design_1/ip/design_1_adc_control_0_0/src/mult_gen_0_1/hdl/xbip_bram18k_v3_0_vh_rfs.vhd" \

vhdl mult_gen_v12_0_15  \
"../../../../FFT.srcs/sources_1/bd/design_1/ip/design_1_adc_control_0_0/src/mult_gen_0_1/hdl/mult_gen_v12_0_vh_rfs.vhd" \

vhdl xil_defaultlib  \
"../../../bd/design_1/ip/design_1_adc_control_0_0/src/mult_gen_0_1/sim/mult_gen_0.vhd" \

vhdl axi_utils_v2_0_6  \
"../../../../FFT.srcs/sources_1/bd/design_1/ip/design_1_adc_control_0_0/src/xfft_0/hdl/axi_utils_v2_0_vh_rfs.vhd" \

vhdl c_reg_fd_v12_0_6  \
"../../../../FFT.srcs/sources_1/bd/design_1/ip/design_1_adc_control_0_0/src/xfft_0/hdl/c_reg_fd_v12_0_vh_rfs.vhd" \

vhdl xbip_dsp48_wrapper_v3_0_4  \
"../../../../FFT.srcs/sources_1/bd/design_1/ip/design_1_adc_control_0_0/src/xfft_0/hdl/xbip_dsp48_wrapper_v3_0_vh_rfs.vhd" \

vhdl xbip_dsp48_addsub_v3_0_6  \
"../../../../FFT.srcs/sources_1/bd/design_1/ip/design_1_adc_control_0_0/src/xfft_0/hdl/xbip_dsp48_addsub_v3_0_vh_rfs.vhd" \

vhdl xbip_addsub_v3_0_6  \
"../../../../FFT.srcs/sources_1/bd/design_1/ip/design_1_adc_control_0_0/src/xfft_0/hdl/xbip_addsub_v3_0_vh_rfs.vhd" \

vhdl c_addsub_v12_0_13  \
"../../../../FFT.srcs/sources_1/bd/design_1/ip/design_1_adc_control_0_0/src/xfft_0/hdl/c_addsub_v12_0_vh_rfs.vhd" \

vhdl c_mux_bit_v12_0_6  \
"../../../../FFT.srcs/sources_1/bd/design_1/ip/design_1_adc_control_0_0/src/xfft_0/hdl/c_mux_bit_v12_0_vh_rfs.vhd" \

vhdl c_shift_ram_v12_0_13  \
"../../../../FFT.srcs/sources_1/bd/design_1/ip/design_1_adc_control_0_0/src/xfft_0/hdl/c_shift_ram_v12_0_vh_rfs.vhd" \

vhdl cmpy_v6_0_17  \
"../../../../FFT.srcs/sources_1/bd/design_1/ip/design_1_adc_control_0_0/src/xfft_0/hdl/cmpy_v6_0_vh_rfs.vhd" \

vhdl floating_point_v7_0_16  \
"../../../../FFT.srcs/sources_1/bd/design_1/ip/design_1_adc_control_0_0/src/xfft_0/hdl/floating_point_v7_0_vh_rfs.vhd" \

vhdl xfft_v9_1_2  \
"../../../../FFT.srcs/sources_1/bd/design_1/ip/design_1_adc_control_0_0/src/xfft_0/hdl/xfft_v9_1_vh_rfs.vhd" \

vhdl xil_defaultlib  \
"../../../bd/design_1/ip/design_1_adc_control_0_0/src/xfft_0/sim/xfft_0.vhd" \

nosort
