xpm_cdc.sv,systemverilog,xil_defaultlib,../../../../../../../../../../../Xilinx/Vivado/2019.1/data/ip/xpm/xpm_cdc/hdl/xpm_cdc.sv,incdir="$ref_dir/../../../../FFT.srcs/sources_1/bd/design_1/ip/design_1_adc_control_0_0/src/clk_wiz_1"incdir="../../../../FFT.srcs/sources_1/bd/design_1/ip/design_1_adc_control_0_0/src/clk_wiz_1"incdir="../../../../FFT.srcs/sources_1/bd/design_1/ip/design_1_top_logic_0_0/src/clk_wiz_0"
xpm_memory.sv,systemverilog,xil_defaultlib,../../../../../../../../../../../Xilinx/Vivado/2019.1/data/ip/xpm/xpm_memory/hdl/xpm_memory.sv,incdir="$ref_dir/../../../../FFT.srcs/sources_1/bd/design_1/ip/design_1_adc_control_0_0/src/clk_wiz_1"incdir="../../../../FFT.srcs/sources_1/bd/design_1/ip/design_1_adc_control_0_0/src/clk_wiz_1"incdir="../../../../FFT.srcs/sources_1/bd/design_1/ip/design_1_top_logic_0_0/src/clk_wiz_0"
xpm_VCOMP.vhd,vhdl,xpm,../../../../../../../../../../../Xilinx/Vivado/2019.1/data/ip/xpm/xpm_VCOMP.vhd,incdir="$ref_dir/../../../../FFT.srcs/sources_1/bd/design_1/ip/design_1_adc_control_0_0/src/clk_wiz_1"incdir="../../../../FFT.srcs/sources_1/bd/design_1/ip/design_1_adc_control_0_0/src/clk_wiz_1"incdir="../../../../FFT.srcs/sources_1/bd/design_1/ip/design_1_top_logic_0_0/src/clk_wiz_0"
xbip_utils_v3_0_vh_rfs.vhd,vhdl,xbip_utils_v3_0_10,../../../../FFT.srcs/sources_1/bd/design_1/ip/design_1_adc_control_0_0/src/mult_gen_0_1/hdl/xbip_utils_v3_0_vh_rfs.vhd,incdir="$ref_dir/../../../../FFT.srcs/sources_1/bd/design_1/ip/design_1_adc_control_0_0/src/clk_wiz_1"incdir="../../../../FFT.srcs/sources_1/bd/design_1/ip/design_1_adc_control_0_0/src/clk_wiz_1"incdir="../../../../FFT.srcs/sources_1/bd/design_1/ip/design_1_top_logic_0_0/src/clk_wiz_0"
xbip_pipe_v3_0_vh_rfs.vhd,vhdl,xbip_pipe_v3_0_6,../../../../FFT.srcs/sources_1/bd/design_1/ip/design_1_adc_control_0_0/src/mult_gen_0_1/hdl/xbip_pipe_v3_0_vh_rfs.vhd,incdir="$ref_dir/../../../../FFT.srcs/sources_1/bd/design_1/ip/design_1_adc_control_0_0/src/clk_wiz_1"incdir="../../../../FFT.srcs/sources_1/bd/design_1/ip/design_1_adc_control_0_0/src/clk_wiz_1"incdir="../../../../FFT.srcs/sources_1/bd/design_1/ip/design_1_top_logic_0_0/src/clk_wiz_0"
xbip_bram18k_v3_0_vh_rfs.vhd,vhdl,xbip_bram18k_v3_0_6,../../../../FFT.srcs/sources_1/bd/design_1/ip/design_1_adc_control_0_0/src/mult_gen_0_1/hdl/xbip_bram18k_v3_0_vh_rfs.vhd,incdir="$ref_dir/../../../../FFT.srcs/sources_1/bd/design_1/ip/design_1_adc_control_0_0/src/clk_wiz_1"incdir="../../../../FFT.srcs/sources_1/bd/design_1/ip/design_1_adc_control_0_0/src/clk_wiz_1"incdir="../../../../FFT.srcs/sources_1/bd/design_1/ip/design_1_top_logic_0_0/src/clk_wiz_0"
mult_gen_v12_0_vh_rfs.vhd,vhdl,mult_gen_v12_0_15,../../../../FFT.srcs/sources_1/bd/design_1/ip/design_1_adc_control_0_0/src/mult_gen_0_1/hdl/mult_gen_v12_0_vh_rfs.vhd,incdir="$ref_dir/../../../../FFT.srcs/sources_1/bd/design_1/ip/design_1_adc_control_0_0/src/clk_wiz_1"incdir="../../../../FFT.srcs/sources_1/bd/design_1/ip/design_1_adc_control_0_0/src/clk_wiz_1"incdir="../../../../FFT.srcs/sources_1/bd/design_1/ip/design_1_top_logic_0_0/src/clk_wiz_0"
mult_gen_0.vhd,vhdl,xil_defaultlib,../../../bd/design_1/ip/design_1_adc_control_0_0/src/mult_gen_0_1/sim/mult_gen_0.vhd,incdir="$ref_dir/../../../../FFT.srcs/sources_1/bd/design_1/ip/design_1_adc_control_0_0/src/clk_wiz_1"incdir="../../../../FFT.srcs/sources_1/bd/design_1/ip/design_1_adc_control_0_0/src/clk_wiz_1"incdir="../../../../FFT.srcs/sources_1/bd/design_1/ip/design_1_top_logic_0_0/src/clk_wiz_0"
axi_utils_v2_0_vh_rfs.vhd,vhdl,axi_utils_v2_0_6,../../../../FFT.srcs/sources_1/bd/design_1/ip/design_1_adc_control_0_0/src/xfft_0/hdl/axi_utils_v2_0_vh_rfs.vhd,incdir="$ref_dir/../../../../FFT.srcs/sources_1/bd/design_1/ip/design_1_adc_control_0_0/src/clk_wiz_1"incdir="../../../../FFT.srcs/sources_1/bd/design_1/ip/design_1_adc_control_0_0/src/clk_wiz_1"incdir="../../../../FFT.srcs/sources_1/bd/design_1/ip/design_1_top_logic_0_0/src/clk_wiz_0"
c_reg_fd_v12_0_vh_rfs.vhd,vhdl,c_reg_fd_v12_0_6,../../../../FFT.srcs/sources_1/bd/design_1/ip/design_1_adc_control_0_0/src/xfft_0/hdl/c_reg_fd_v12_0_vh_rfs.vhd,incdir="$ref_dir/../../../../FFT.srcs/sources_1/bd/design_1/ip/design_1_adc_control_0_0/src/clk_wiz_1"incdir="../../../../FFT.srcs/sources_1/bd/design_1/ip/design_1_adc_control_0_0/src/clk_wiz_1"incdir="../../../../FFT.srcs/sources_1/bd/design_1/ip/design_1_top_logic_0_0/src/clk_wiz_0"
xbip_dsp48_wrapper_v3_0_vh_rfs.vhd,vhdl,xbip_dsp48_wrapper_v3_0_4,../../../../FFT.srcs/sources_1/bd/design_1/ip/design_1_adc_control_0_0/src/xfft_0/hdl/xbip_dsp48_wrapper_v3_0_vh_rfs.vhd,incdir="$ref_dir/../../../../FFT.srcs/sources_1/bd/design_1/ip/design_1_adc_control_0_0/src/clk_wiz_1"incdir="../../../../FFT.srcs/sources_1/bd/design_1/ip/design_1_adc_control_0_0/src/clk_wiz_1"incdir="../../../../FFT.srcs/sources_1/bd/design_1/ip/design_1_top_logic_0_0/src/clk_wiz_0"
xbip_dsp48_addsub_v3_0_vh_rfs.vhd,vhdl,xbip_dsp48_addsub_v3_0_6,../../../../FFT.srcs/sources_1/bd/design_1/ip/design_1_adc_control_0_0/src/xfft_0/hdl/xbip_dsp48_addsub_v3_0_vh_rfs.vhd,incdir="$ref_dir/../../../../FFT.srcs/sources_1/bd/design_1/ip/design_1_adc_control_0_0/src/clk_wiz_1"incdir="../../../../FFT.srcs/sources_1/bd/design_1/ip/design_1_adc_control_0_0/src/clk_wiz_1"incdir="../../../../FFT.srcs/sources_1/bd/design_1/ip/design_1_top_logic_0_0/src/clk_wiz_0"
xbip_addsub_v3_0_vh_rfs.vhd,vhdl,xbip_addsub_v3_0_6,../../../../FFT.srcs/sources_1/bd/design_1/ip/design_1_adc_control_0_0/src/xfft_0/hdl/xbip_addsub_v3_0_vh_rfs.vhd,incdir="$ref_dir/../../../../FFT.srcs/sources_1/bd/design_1/ip/design_1_adc_control_0_0/src/clk_wiz_1"incdir="../../../../FFT.srcs/sources_1/bd/design_1/ip/design_1_adc_control_0_0/src/clk_wiz_1"incdir="../../../../FFT.srcs/sources_1/bd/design_1/ip/design_1_top_logic_0_0/src/clk_wiz_0"
c_addsub_v12_0_vh_rfs.vhd,vhdl,c_addsub_v12_0_13,../../../../FFT.srcs/sources_1/bd/design_1/ip/design_1_adc_control_0_0/src/xfft_0/hdl/c_addsub_v12_0_vh_rfs.vhd,incdir="$ref_dir/../../../../FFT.srcs/sources_1/bd/design_1/ip/design_1_adc_control_0_0/src/clk_wiz_1"incdir="../../../../FFT.srcs/sources_1/bd/design_1/ip/design_1_adc_control_0_0/src/clk_wiz_1"incdir="../../../../FFT.srcs/sources_1/bd/design_1/ip/design_1_top_logic_0_0/src/clk_wiz_0"
c_mux_bit_v12_0_vh_rfs.vhd,vhdl,c_mux_bit_v12_0_6,../../../../FFT.srcs/sources_1/bd/design_1/ip/design_1_adc_control_0_0/src/xfft_0/hdl/c_mux_bit_v12_0_vh_rfs.vhd,incdir="$ref_dir/../../../../FFT.srcs/sources_1/bd/design_1/ip/design_1_adc_control_0_0/src/clk_wiz_1"incdir="../../../../FFT.srcs/sources_1/bd/design_1/ip/design_1_adc_control_0_0/src/clk_wiz_1"incdir="../../../../FFT.srcs/sources_1/bd/design_1/ip/design_1_top_logic_0_0/src/clk_wiz_0"
c_shift_ram_v12_0_vh_rfs.vhd,vhdl,c_shift_ram_v12_0_13,../../../../FFT.srcs/sources_1/bd/design_1/ip/design_1_adc_control_0_0/src/xfft_0/hdl/c_shift_ram_v12_0_vh_rfs.vhd,incdir="$ref_dir/../../../../FFT.srcs/sources_1/bd/design_1/ip/design_1_adc_control_0_0/src/clk_wiz_1"incdir="../../../../FFT.srcs/sources_1/bd/design_1/ip/design_1_adc_control_0_0/src/clk_wiz_1"incdir="../../../../FFT.srcs/sources_1/bd/design_1/ip/design_1_top_logic_0_0/src/clk_wiz_0"
cmpy_v6_0_vh_rfs.vhd,vhdl,cmpy_v6_0_17,../../../../FFT.srcs/sources_1/bd/design_1/ip/design_1_adc_control_0_0/src/xfft_0/hdl/cmpy_v6_0_vh_rfs.vhd,incdir="$ref_dir/../../../../FFT.srcs/sources_1/bd/design_1/ip/design_1_adc_control_0_0/src/clk_wiz_1"incdir="../../../../FFT.srcs/sources_1/bd/design_1/ip/design_1_adc_control_0_0/src/clk_wiz_1"incdir="../../../../FFT.srcs/sources_1/bd/design_1/ip/design_1_top_logic_0_0/src/clk_wiz_0"
floating_point_v7_0_vh_rfs.vhd,vhdl,floating_point_v7_0_16,../../../../FFT.srcs/sources_1/bd/design_1/ip/design_1_adc_control_0_0/src/xfft_0/hdl/floating_point_v7_0_vh_rfs.vhd,incdir="$ref_dir/../../../../FFT.srcs/sources_1/bd/design_1/ip/design_1_adc_control_0_0/src/clk_wiz_1"incdir="../../../../FFT.srcs/sources_1/bd/design_1/ip/design_1_adc_control_0_0/src/clk_wiz_1"incdir="../../../../FFT.srcs/sources_1/bd/design_1/ip/design_1_top_logic_0_0/src/clk_wiz_0"
xfft_v9_1_vh_rfs.vhd,vhdl,xfft_v9_1_2,../../../../FFT.srcs/sources_1/bd/design_1/ip/design_1_adc_control_0_0/src/xfft_0/hdl/xfft_v9_1_vh_rfs.vhd,incdir="$ref_dir/../../../../FFT.srcs/sources_1/bd/design_1/ip/design_1_adc_control_0_0/src/clk_wiz_1"incdir="../../../../FFT.srcs/sources_1/bd/design_1/ip/design_1_adc_control_0_0/src/clk_wiz_1"incdir="../../../../FFT.srcs/sources_1/bd/design_1/ip/design_1_top_logic_0_0/src/clk_wiz_0"
xfft_0.vhd,vhdl,xil_defaultlib,../../../bd/design_1/ip/design_1_adc_control_0_0/src/xfft_0/sim/xfft_0.vhd,incdir="$ref_dir/../../../../FFT.srcs/sources_1/bd/design_1/ip/design_1_adc_control_0_0/src/clk_wiz_1"incdir="../../../../FFT.srcs/sources_1/bd/design_1/ip/design_1_adc_control_0_0/src/clk_wiz_1"incdir="../../../../FFT.srcs/sources_1/bd/design_1/ip/design_1_top_logic_0_0/src/clk_wiz_0"
clk_wiz_1_clk_wiz.v,verilog,xil_defaultlib,../../../bd/design_1/ip/design_1_adc_control_0_0/src/clk_wiz_1/clk_wiz_1_clk_wiz.v,incdir="$ref_dir/../../../../FFT.srcs/sources_1/bd/design_1/ip/design_1_adc_control_0_0/src/clk_wiz_1"incdir="../../../../FFT.srcs/sources_1/bd/design_1/ip/design_1_adc_control_0_0/src/clk_wiz_1"incdir="../../../../FFT.srcs/sources_1/bd/design_1/ip/design_1_top_logic_0_0/src/clk_wiz_0"
clk_wiz_1.v,verilog,xil_defaultlib,../../../bd/design_1/ip/design_1_adc_control_0_0/src/clk_wiz_1/clk_wiz_1.v,incdir="$ref_dir/../../../../FFT.srcs/sources_1/bd/design_1/ip/design_1_adc_control_0_0/src/clk_wiz_1"incdir="../../../../FFT.srcs/sources_1/bd/design_1/ip/design_1_adc_control_0_0/src/clk_wiz_1"incdir="../../../../FFT.srcs/sources_1/bd/design_1/ip/design_1_top_logic_0_0/src/clk_wiz_0"
bram_40bit.v,verilog,xil_defaultlib,../../../bd/design_1/ipshared/995d/src/bram_40bit.v,incdir="$ref_dir/../../../../FFT.srcs/sources_1/bd/design_1/ip/design_1_adc_control_0_0/src/clk_wiz_1"incdir="../../../../FFT.srcs/sources_1/bd/design_1/ip/design_1_adc_control_0_0/src/clk_wiz_1"incdir="../../../../FFT.srcs/sources_1/bd/design_1/ip/design_1_top_logic_0_0/src/clk_wiz_0"
bram.sv,systemverilog,xil_defaultlib,../../../bd/design_1/ipshared/995d/src/bram.sv,incdir="$ref_dir/../../../../FFT.srcs/sources_1/bd/design_1/ip/design_1_adc_control_0_0/src/clk_wiz_1"incdir="../../../../FFT.srcs/sources_1/bd/design_1/ip/design_1_adc_control_0_0/src/clk_wiz_1"incdir="../../../../FFT.srcs/sources_1/bd/design_1/ip/design_1_top_logic_0_0/src/clk_wiz_0"
adc_control.sv,systemverilog,xil_defaultlib,../../../bd/design_1/ipshared/995d/hdl/adc_control.sv,incdir="$ref_dir/../../../../FFT.srcs/sources_1/bd/design_1/ip/design_1_adc_control_0_0/src/clk_wiz_1"incdir="../../../../FFT.srcs/sources_1/bd/design_1/ip/design_1_adc_control_0_0/src/clk_wiz_1"incdir="../../../../FFT.srcs/sources_1/bd/design_1/ip/design_1_top_logic_0_0/src/clk_wiz_0"
design_1_adc_control_0_0.sv,systemverilog,xil_defaultlib,../../../bd/design_1/ip/design_1_adc_control_0_0/sim/design_1_adc_control_0_0.sv,incdir="$ref_dir/../../../../FFT.srcs/sources_1/bd/design_1/ip/design_1_adc_control_0_0/src/clk_wiz_1"incdir="../../../../FFT.srcs/sources_1/bd/design_1/ip/design_1_adc_control_0_0/src/clk_wiz_1"incdir="../../../../FFT.srcs/sources_1/bd/design_1/ip/design_1_top_logic_0_0/src/clk_wiz_0"
init_clk_v1_0.v,verilog,xil_defaultlib,../../../bd/design_1/ipshared/979f/hdl/init_clk_v1_0.v,incdir="$ref_dir/../../../../FFT.srcs/sources_1/bd/design_1/ip/design_1_adc_control_0_0/src/clk_wiz_1"incdir="../../../../FFT.srcs/sources_1/bd/design_1/ip/design_1_adc_control_0_0/src/clk_wiz_1"incdir="../../../../FFT.srcs/sources_1/bd/design_1/ip/design_1_top_logic_0_0/src/clk_wiz_0"
design_1_init_clk_0_0.v,verilog,xil_defaultlib,../../../bd/design_1/ip/design_1_init_clk_0_0/sim/design_1_init_clk_0_0.v,incdir="$ref_dir/../../../../FFT.srcs/sources_1/bd/design_1/ip/design_1_adc_control_0_0/src/clk_wiz_1"incdir="../../../../FFT.srcs/sources_1/bd/design_1/ip/design_1_adc_control_0_0/src/clk_wiz_1"incdir="../../../../FFT.srcs/sources_1/bd/design_1/ip/design_1_top_logic_0_0/src/clk_wiz_0"
clk_wiz_0_clk_wiz.v,verilog,xil_defaultlib,../../../bd/design_1/ip/design_1_top_logic_0_0/src/clk_wiz_0/clk_wiz_0_clk_wiz.v,incdir="$ref_dir/../../../../FFT.srcs/sources_1/bd/design_1/ip/design_1_adc_control_0_0/src/clk_wiz_1"incdir="../../../../FFT.srcs/sources_1/bd/design_1/ip/design_1_adc_control_0_0/src/clk_wiz_1"incdir="../../../../FFT.srcs/sources_1/bd/design_1/ip/design_1_top_logic_0_0/src/clk_wiz_0"
clk_wiz_0.v,verilog,xil_defaultlib,../../../bd/design_1/ip/design_1_top_logic_0_0/src/clk_wiz_0/clk_wiz_0.v,incdir="$ref_dir/../../../../FFT.srcs/sources_1/bd/design_1/ip/design_1_adc_control_0_0/src/clk_wiz_1"incdir="../../../../FFT.srcs/sources_1/bd/design_1/ip/design_1_adc_control_0_0/src/clk_wiz_1"incdir="../../../../FFT.srcs/sources_1/bd/design_1/ip/design_1_top_logic_0_0/src/clk_wiz_0"
top_logic_v1_0.v,verilog,xil_defaultlib,../../../bd/design_1/ipshared/dc94/hdl/top_logic_v1_0.v,incdir="$ref_dir/../../../../FFT.srcs/sources_1/bd/design_1/ip/design_1_adc_control_0_0/src/clk_wiz_1"incdir="../../../../FFT.srcs/sources_1/bd/design_1/ip/design_1_adc_control_0_0/src/clk_wiz_1"incdir="../../../../FFT.srcs/sources_1/bd/design_1/ip/design_1_top_logic_0_0/src/clk_wiz_0"
design_1_top_logic_0_0.v,verilog,xil_defaultlib,../../../bd/design_1/ip/design_1_top_logic_0_0/sim/design_1_top_logic_0_0.v,incdir="$ref_dir/../../../../FFT.srcs/sources_1/bd/design_1/ip/design_1_adc_control_0_0/src/clk_wiz_1"incdir="../../../../FFT.srcs/sources_1/bd/design_1/ip/design_1_adc_control_0_0/src/clk_wiz_1"incdir="../../../../FFT.srcs/sources_1/bd/design_1/ip/design_1_top_logic_0_0/src/clk_wiz_0"
pll_receive.v,verilog,xil_defaultlib,../../../bd/design_1/ipshared/b142/src/pll_receive.v,incdir="$ref_dir/../../../../FFT.srcs/sources_1/bd/design_1/ip/design_1_adc_control_0_0/src/clk_wiz_1"incdir="../../../../FFT.srcs/sources_1/bd/design_1/ip/design_1_adc_control_0_0/src/clk_wiz_1"incdir="../../../../FFT.srcs/sources_1/bd/design_1/ip/design_1_top_logic_0_0/src/clk_wiz_0"
pll_send.v,verilog,xil_defaultlib,../../../bd/design_1/ipshared/b142/src/pll_send.v,incdir="$ref_dir/../../../../FFT.srcs/sources_1/bd/design_1/ip/design_1_adc_control_0_0/src/clk_wiz_1"incdir="../../../../FFT.srcs/sources_1/bd/design_1/ip/design_1_adc_control_0_0/src/clk_wiz_1"incdir="../../../../FFT.srcs/sources_1/bd/design_1/ip/design_1_top_logic_0_0/src/clk_wiz_0"
pll_v1_0.v,verilog,xil_defaultlib,../../../bd/design_1/ipshared/b142/hdl/pll_v1_0.v,incdir="$ref_dir/../../../../FFT.srcs/sources_1/bd/design_1/ip/design_1_adc_control_0_0/src/clk_wiz_1"incdir="../../../../FFT.srcs/sources_1/bd/design_1/ip/design_1_adc_control_0_0/src/clk_wiz_1"incdir="../../../../FFT.srcs/sources_1/bd/design_1/ip/design_1_top_logic_0_0/src/clk_wiz_0"
design_1_pll_0_1.v,verilog,xil_defaultlib,../../../bd/design_1/ip/design_1_pll_0_1/sim/design_1_pll_0_1.v,incdir="$ref_dir/../../../../FFT.srcs/sources_1/bd/design_1/ip/design_1_adc_control_0_0/src/clk_wiz_1"incdir="../../../../FFT.srcs/sources_1/bd/design_1/ip/design_1_adc_control_0_0/src/clk_wiz_1"incdir="../../../../FFT.srcs/sources_1/bd/design_1/ip/design_1_top_logic_0_0/src/clk_wiz_0"
uart_receive.v,verilog,xil_defaultlib,../../../bd/design_1/ipshared/ce55/hdl/uart_receive.v,incdir="$ref_dir/../../../../FFT.srcs/sources_1/bd/design_1/ip/design_1_adc_control_0_0/src/clk_wiz_1"incdir="../../../../FFT.srcs/sources_1/bd/design_1/ip/design_1_adc_control_0_0/src/clk_wiz_1"incdir="../../../../FFT.srcs/sources_1/bd/design_1/ip/design_1_top_logic_0_0/src/clk_wiz_0"
uart_send.v,verilog,xil_defaultlib,../../../bd/design_1/ipshared/ce55/hdl/uart_send.v,incdir="$ref_dir/../../../../FFT.srcs/sources_1/bd/design_1/ip/design_1_adc_control_0_0/src/clk_wiz_1"incdir="../../../../FFT.srcs/sources_1/bd/design_1/ip/design_1_adc_control_0_0/src/clk_wiz_1"incdir="../../../../FFT.srcs/sources_1/bd/design_1/ip/design_1_top_logic_0_0/src/clk_wiz_0"
uart_v1_0.v,verilog,xil_defaultlib,../../../bd/design_1/ipshared/ce55/hdl/uart_v1_0.v,incdir="$ref_dir/../../../../FFT.srcs/sources_1/bd/design_1/ip/design_1_adc_control_0_0/src/clk_wiz_1"incdir="../../../../FFT.srcs/sources_1/bd/design_1/ip/design_1_adc_control_0_0/src/clk_wiz_1"incdir="../../../../FFT.srcs/sources_1/bd/design_1/ip/design_1_top_logic_0_0/src/clk_wiz_0"
design_1_uart_0_0.v,verilog,xil_defaultlib,../../../bd/design_1/ip/design_1_uart_0_0/sim/design_1_uart_0_0.v,incdir="$ref_dir/../../../../FFT.srcs/sources_1/bd/design_1/ip/design_1_adc_control_0_0/src/clk_wiz_1"incdir="../../../../FFT.srcs/sources_1/bd/design_1/ip/design_1_adc_control_0_0/src/clk_wiz_1"incdir="../../../../FFT.srcs/sources_1/bd/design_1/ip/design_1_top_logic_0_0/src/clk_wiz_0"
design_1.v,verilog,xil_defaultlib,../../../bd/design_1/sim/design_1.v,incdir="$ref_dir/../../../../FFT.srcs/sources_1/bd/design_1/ip/design_1_adc_control_0_0/src/clk_wiz_1"incdir="../../../../FFT.srcs/sources_1/bd/design_1/ip/design_1_adc_control_0_0/src/clk_wiz_1"incdir="../../../../FFT.srcs/sources_1/bd/design_1/ip/design_1_top_logic_0_0/src/clk_wiz_0"
glbl.v,Verilog,xil_defaultlib,glbl.v
